................
----------------------------------------------------------------------
Ran 16 tests in 0.642s

OK
Name             Stmts   Miss Branch BrPart  Cover   Missing
------------------------------------------------------------
Collatz.py          48      0     18      0   100%
TestCollatz.py      72      0      0      0   100%
------------------------------------------------------------
TOTAL              120      0     18      0   100%