848344 833401 525
806122 810167 406
525178 736100 509
333955 463705 449
918991 790868 525
842337 372215 525
386626 688476 509
27553 653885 509
1 999999 525
46 150 122
68 36 113
97 82 119
45 24 112
53 75 116
100 130 122
30 85 116
145 75 122
41 32 110
136 132 42
129 138 122
14 100 119
6 21 21
122 50 119
70 80 116
4 124 119
77 128 119
117 19 119
99 106 88
146 12 122
146 117 122
16 17 13
45 17 112
114 23 119
101 76 119
72 78 116
37 133 122
69 60 108
62 18 113
20 145 122
91 119 119
88 68 116
66 60 108
147 109 122
18 20 21
81 32 116
150 24 122
75 110 119
27 65 113
97 41 119
147 74 122
30 134 122
91 6 116
131 21 122
37 47 110
121 15 119
11 90 116
70 38 113
45 56 113
70 142 122
121 90 119
126 84 119
98 18 119
108 125 114
81 144 122
141 40 122
66 26 113
40 93 116
53 11 112
119 126 109
69 28 113
133 59 122
31 141 122
90 43 116
68 43 113
79 100 119
74 122 119
45 14 112
121 25 119
22 33 112
103 40 119
114 79 119
139 78 122
68 13 113
87 71 116
139 128 122
105 22 119
117 54 119
111 11 119
147 107 122
36 77 116
69 128 119
115 55 119
93 20 116
28 108 119
56 57 33
90 36 116
32 107 119
26 113 119
124 57 119
129 75 122
10 122 119
112 8 119
95 83 111
145 116 122
103 82 119
64 5 113
55 126 119
113 147 122
146 111 122
46 96 116
117 76 119
127 59 119
37 120 119
26 137 122
112 102 114
123 61 119
83 23 116
57 66 108
119 88 119
40 48 110
96 52 116
86 18 116
37 107 119
138 9 122
126 20 119
100 93 119
54 86 116
46 82 116
133 45 122
59 34 113
108 141 122
46 146 122
47 125 119
2 123 119
133 94 122
130 24 122
104 62 119
139 135 91
90 122 119
105 55 119
67 3 113
28 80 116
14 125 119
3 89 116
82 136 122
122 27 119
30 73 116
111 45 119
94 138 122
5 74 116
124 105 114
40 34 35
27 143 122
83 41 116
130 100 122
134 131 29
8 126 119
117 46 119
76 49 116
141 11 122
57 10 113
9 1 20
28 40 107
63 18 113
94 52 116
18 20 21
28 104 119
7 117 119
40 106 119
46 68 113
135 7 122
40 134 122
89 97 119
135 68 122
44 91 116
89 65 116
34 70 113
85 59 116
150 53 122
37 139 122
143 131 104
122 131 122
39 31 107
39 27 112
54 40 113
4 66 113
143 147 117
138 128 122
33 113 119
90 72 116
149 139 117
149 98 122
57 5 113
70 85 116
37 17 112
48 87 116
125 142 122
10 111 119
