1 10 20
100 200 125
201 210 89
900 1000 174
707 666 171
655 403 145
613 235 144
867 946 179
849 494 171
274 750 171
631 102 144
181 565 144
905 136 179
776 717 153
689 297 145
626 250 144
802 666 171
334 691 145
256 91 128
557 891 179
256 485 144
982 485 179
342 947 179
778 500 171
8488 265 262
1021 2649 209
1966 858 182
8582 2656 262
4112 3636 238
8211 1993 262
5356 216 238
7094 5354 262
7561 2011 262
3976 7345 262
8590 2242 262
5403 5545 205
2730 2044 209
8094 412 262
2720 1995 209
6974 1982 262
7129 2912 262
4351 6525 262
5650 6410 262
6884 2220 262
1835 8937 262
2506 7135 262
8332 7542 252
8552 5521 262
5977 6285 262
1894 595 182
8666 3244 262
6024 7653 262
9763 4091 262
9652 1479 262
8460 1303 262
7707 1588 262
3277 1389 217
8408 6363 257
3464 5759 238
35 6480 262
9868 6563 260
1757 8347 262
9564 9442 198
9628 2474 262
67590 95112 351
47540 44957 314
70686 8187 340
36914 91227 351
14321 36559 324
8569 7024 252
69596 92915 351
97766 68986 351
2841 22994 279
56767 42244 340
42647 86041 351
73235 71371 294
20146 90128 351
86733 11717 351
50001 73960 340
48350 78127 351
70846 7196 340
13124 60145 340
82616 15694 351
59661 139 340
809823 996759 525
454883 109177 449
90079 77675 338
673013 346988 509
661353 62104 509
64657 573376 470
915174 210818 525
857146 242987 525
409921 382897 436
423184 866979 525
161689 426313 449
381085 697761 509
466592 311081 449
176654 506644 449
972775 142948 525
961316 268084 525
584323 24 470
491147 950691 525
407504 770862 509
157706 247605 443
1 1000000 525
2 999999 525
789002 999999 525
2 789999 509
1000999 2 525
510272 213306 449
485083 409209 449
937279 958435 507
274124 712717 509
339023 739313 509
596135 688353 509
627053 233759 509
201266 47447 383
75384 513514 470
876168 585938 525
991060 505033 525
853018 291568 525
484185 644710 509
215319 715439 509
34973 601494 470
427674 311233 449
582083 854048 525
749242 696413 504
42071 849089 525
251002 309548 407
628193 262949 509
537899 701749 509
548563 343017 470
811389 506207 509
351374 483530 449
675376 261151 509
238265 742036 509
432577 422058 418
282724 165215 443
790451 87928 509
666224 991987 525
986036 283310 525
410198 438438 418
196207 597661 470
754523 765670 380
51056 50164 278
852608 729826 525
442776 139435 449
39967 413763 449
155005 991505 525
